My Blog: Anexo N°1 - Base de Datos de Lijphart y Análisis de Cluster
…
Procederemos a extraer estos resultados para agregarlos a nuestra base:

lp2 <- lp2 %>%
  mutate(cluster = cluster_alt$cluster)

Al examinar nuestros clusters tenemos que:

lp2 %>% 
  select(country_name, cluster) %>% 
  arrange(cluster)

# A tibble: 36 × 2
   country_name cluster
   <chr>          <int>
 1 Belgium            1
 2 Denmark            1
 3 Finland            1
 4 Iceland            1
 5 Ireland            1
 6 Israel             1
 7 Italy              1
 8 Japan              1
 9 Luxembourg         1
10 Mauritius          1
# … with 26 more rows
Suiza, Alemania, India y Austria lideran el cluster 1. Estos regímenes son ejemplos del modelo consensual puro teorizado por Lijphart (1999). No obstante, llama la inclusión la aparación de otros sistemas políticos que no suelen encajar en esta categoría. En particular, debido a la concentración del poder político en el Ejecutivo, llama la atención que Estados Unidos y Australia aparezcan en esta categoría. En base a esto denomino al cluster como Modelos Consensuales.

El cluster 2 tiene regímenes normalmente asociados a modelos consensuales como Bélgica, Japón, Países Bajos y Suecia, pero también se compone de otros como Nueva Zelanda que Lijphart (1999) clasifica como tipos puros de modelos mayoritarios. Defino a este grupo como Modelos Mixtos.

El cluster 3 se nutre de países fuertemente asociados a los modelos mayoritarios como Reino Unido, Barbados, Bahamas, Francia, Grecia, Jamaica y España. Se domina a este cluster Modelos Mayoritarios.

lp2 <- lp2 %>% 
  mutate(modelos = case_when(cluster == 1 ~ "Consensual",
                             cluster == 2 ~ "Mixto",
                             cluster == 3 ~ "Mayoritario"))

lp2 %>% 
  select(country_name, modelos)

# A tibble: 36 × 2
   country_name modelos    
   <chr>        <chr>      
 1 Argentina    Mayoritario
 2 Australia    Mayoritario
 3 Austria      Mayoritario
 4 Bahrain      Mixto      
 5 Barbados     Mixto      
 6 Belgium      Consensual 
 7 Botswana     Mixto      
 8 Canada       Mayoritario
 9 Costa Rica   Mixto      
10 Denmark      Consensual 
# … with 26 more rows
…
