Política y Perspectiva: Proyecto Final - Modelos de democracia y calidad democrática
…
Procederemos a extraer estos resultados para agregarlos a nuestra base:

lp2 <- lp2 %>%
  mutate(cluster = cluster_alt$cluster)

Al examinar nuestros clusters tenemos que:

lp2 %>% 
  select(country_name, cluster) %>% 
  arrange(cluster)

# A tibble: 36 × 2
   country_name cluster
   <chr>          <int>
 1 Belgium            1
 2 Denmark            1
 3 Finland            1
 4 Iceland            1
 5 Ireland            1
 6 Israel             1
 7 Italy              1
 8 Japan              1
 9 Luxembourg         1
10 Mauritius          1
# … with 26 more rows
…
